0,	0,	@0x7ffd0a1c08a0
1,	0,	@0x7ffd0a1c08a0
2,	0,	@0x7ffd0a1c08a0
3,	0,	@0x7ffd0a1c08a0
4,	0,	@0x7ffd0a1c08a0
5,	0,	@0x7ffd0a1c08a0
0,	1,	@0x7ffd0a1c08a0
1,	1,	@0x7ffd0a1c08a0
2,	1,	@0x7ffd0a1c08a0
3,	1,	@0x7ffd0a1c08a0
4,	1,	@0x7ffd0a1c08a0
5,	1,	@0x7ffd0a1c08a0
0,	2,	@0x7ffd0a1c08a0
1,	2,	@0x7ffd0a1c08a0
2,	2,	@0x7ffd0a1c08a0
3,	2,	@0x7ffd0a1c08a0
4,	2,	@0x7ffd0a1c08a0
5,	2,	@0x7ffd0a1c08a0
0,	3,	@0x7ffd0a1c08a0
1,	3,	@0x7ffd0a1c08a0
2,	3,	@0x7ffd0a1c08a0
3,	3,	@0x7ffd0a1c08a0
4,	3,	@0x7ffd0a1c08a0
5,	3,	@0x7ffd0a1c08a0
0,	4,	@0x7ffd0a1c08a0
1,	4,	@0x7ffd0a1c08a0
2,	4,	@0x7ffd0a1c08a0
3,	4,	@0x7ffd0a1c08a0
4,	4,	@0x7ffd0a1c08a0
5,	4,	@0x7ffd0a1c08a0
0,	5,	@0x7ffd0a1c08a0
1,	5,	@0x7ffd0a1c08a0
2,	5,	@0x7ffd0a1c08a0
3,	5,	@0x7ffd0a1c08a0
4,	5,	@0x7ffd0a1c08a0
5,	5,	@0x7ffd0a1c08a0
0,	0,	@0x7ffd0a1c08a0
1,	0,	@0x7ffd0a1c08a0
2,	0,	@0x7ffd0a1c08a0
3,	0,	@0x7ffd0a1c08a0
4,	0,	@0x7ffd0a1c08a0
5,	0,	@0x7ffd0a1c08a0
0,	1,	@0x7ffd0a1c08a0
1,	1,	@0x7ffd0a1c08a0
2,	1,	@0x7ffd0a1c08a0
3,	1,	@0x7ffd0a1c08a0
4,	1,	@0x7ffd0a1c08a0
5,	1,	@0x7ffd0a1c08a0
0,	2,	@0x7ffd0a1c08a0
1,	2,	@0x7ffd0a1c08a0
2,	2,	@0x7ffd0a1c08a0
3,	2,	@0x7ffd0a1c08a0
4,	2,	@0x7ffd0a1c08a0
5,	2,	@0x7ffd0a1c08a0
0,	3,	@0x7ffd0a1c08a0
1,	3,	@0x7ffd0a1c08a0
2,	3,	@0x7ffd0a1c08a0
3,	3,	@0x7ffd0a1c08a0
4,	3,	@0x7ffd0a1c08a0
5,	3,	@0x7ffd0a1c08a0
0,	4,	@0x7ffd0a1c08a0
1,	4,	@0x7ffd0a1c08a0
2,	4,	@0x7ffd0a1c08a0
3,	4,	@0x7ffd0a1c08a0
4,	4,	@0x7ffd0a1c08a0
5,	4,	@0x7ffd0a1c08a0
0,	5,	@0x7ffd0a1c08a0
1,	5,	@0x7ffd0a1c08a0
2,	5,	@0x7ffd0a1c08a0
3,	5,	@0x7ffd0a1c08a0
4,	5,	@0x7ffd0a1c08a0
5,	5,	@0x7ffd0a1c08a0
0,	0,	@0x7ffd0a1c0860
1,	0,	@0x7ffd0a1c0860
2,	0,	@0x7ffd0a1c0860
3,	0,	@0x7ffd0a1c0860
4,	0,	@0x7ffd0a1c0860
5,	0,	@0x7ffd0a1c0860
0,	1,	@0x7ffd0a1c0860
1,	1,	@0x7ffd0a1c0860
2,	1,	@0x7ffd0a1c0860
3,	1,	@0x7ffd0a1c0860
4,	1,	@0x7ffd0a1c0860
5,	1,	@0x7ffd0a1c0860
0,	2,	@0x7ffd0a1c0860
1,	2,	@0x7ffd0a1c0860
2,	2,	@0x7ffd0a1c0860
3,	2,	@0x7ffd0a1c0860
4,	2,	@0x7ffd0a1c0860
5,	2,	@0x7ffd0a1c0860
0,	3,	@0x7ffd0a1c0860
1,	3,	@0x7ffd0a1c0860
2,	3,	@0x7ffd0a1c0860
3,	3,	@0x7ffd0a1c0860
4,	3,	@0x7ffd0a1c0860
5,	3,	@0x7ffd0a1c0860
0,	4,	@0x7ffd0a1c0860
1,	4,	@0x7ffd0a1c0860
2,	4,	@0x7ffd0a1c0860
3,	4,	@0x7ffd0a1c0860
4,	4,	@0x7ffd0a1c0860
5,	4,	@0x7ffd0a1c0860
0,	5,	@0x7ffd0a1c0860
1,	5,	@0x7ffd0a1c0860
2,	5,	@0x7ffd0a1c0860
3,	5,	@0x7ffd0a1c0860
4,	5,	@0x7ffd0a1c0860
5,	5,	@0x7ffd0a1c0860
0,	0,	@0x7ffd0a1c0860
1,	0,	@0x7ffd0a1c0860
2,	0,	@0x7ffd0a1c0860
3,	0,	@0x7ffd0a1c0860
4,	0,	@0x7ffd0a1c0860
5,	0,	@0x7ffd0a1c0860
0,	1,	@0x7ffd0a1c0860
1,	1,	@0x7ffd0a1c0860
2,	1,	@0x7ffd0a1c0860
3,	1,	@0x7ffd0a1c0860
4,	1,	@0x7ffd0a1c0860
5,	1,	@0x7ffd0a1c0860
0,	2,	@0x7ffd0a1c0860
1,	2,	@0x7ffd0a1c0860
2,	2,	@0x7ffd0a1c0860
3,	2,	@0x7ffd0a1c0860
4,	2,	@0x7ffd0a1c0860
5,	2,	@0x7ffd0a1c0860
0,	3,	@0x7ffd0a1c0860
1,	3,	@0x7ffd0a1c0860
2,	3,	@0x7ffd0a1c0860
3,	3,	@0x7ffd0a1c0860
4,	3,	@0x7ffd0a1c0860
5,	3,	@0x7ffd0a1c0860
0,	4,	@0x7ffd0a1c0860
1,	4,	@0x7ffd0a1c0860
2,	4,	@0x7ffd0a1c0860
3,	4,	@0x7ffd0a1c0860
4,	4,	@0x7ffd0a1c0860
5,	4,	@0x7ffd0a1c0860
0,	5,	@0x7ffd0a1c0860
1,	5,	@0x7ffd0a1c0860
2,	5,	@0x7ffd0a1c0860
3,	5,	@0x7ffd0a1c0860
4,	5,	@0x7ffd0a1c0860
5,	5,	@0x7ffd0a1c0860
